Week 9 - Additional Modeling Practice
…
# Read in data
bikes <- readr::read_csv("https://www4.stat.ncsu.edu/~online/datasets/SeoulBikeData.csv", locale = locale(encoding = "latin1"))

Rows: 8760 Columns: 14
── Column specification ────────────────────────────────────────────────────────
Delimiter: ","
chr  (4): Date, Seasons, Holiday, Functioning Day
dbl (10): Rented Bike Count, Hour, Temperature(°C), Humidity(%), Wind speed ...

ℹ Use `spec()` to retrieve the full column specification for this data.
ℹ Specify the column types or set `show_col_types = FALSE` to quiet this message.

bikes

# A tibble: 8,760 × 14
   Date       `Rented Bike Count`  Hour `Temperature(°C)` `Humidity(%)`
   <chr>                    <dbl> <dbl>             <dbl>         <dbl>
 1 01/12/2017                 254     0              -5.2            37
 2 01/12/2017                 204     1              -5.5            38
 3 01/12/2017                 173     2              -6              39
 4 01/12/2017                 107     3              -6.2            40
 5 01/12/2017                  78     4              -6              36
 6 01/12/2017                 100     5              -6.4            37
 7 01/12/2017                 181     6              -6.6            35
 8 01/12/2017                 460     7              -7.4            38
 9 01/12/2017                 930     8              -7.6            37
10 01/12/2017                 490     9              -6.5            27
# ℹ 8,750 more rows
# ℹ 9 more variables: `Wind speed (m/s)` <dbl>, `Visibility (10m)` <dbl>,
#   `Dew point temperature(°C)` <dbl>, `Solar Radiation (MJ/m2)` <dbl>,
#   `Rainfall(mm)` <dbl>, `Snowfall (cm)` <dbl>, Seasons <chr>, Holiday <chr>,
#   `Functioning Day` <chr>
…
`summarise()` has grouped output by 'date', 'seasons'. You can override using
the `.groups` argument.

bikes

# A tibble: 353 × 12
   date       seasons holiday    bike_count    temp humidity wind_speed   vis
   <date>     <fct>   <fct>           <dbl>   <dbl>    <dbl>      <dbl> <dbl>
 1 2017-12-01 Winter  No Holiday       9539 -2.45       45.9      1.54  1871.
 2 2017-12-02 Winter  No Holiday       8523  1.32       62.0      1.71  1471.
 3 2017-12-03 Winter  No Holiday       7222  4.88       81.5      1.61   456.
 4 2017-12-04 Winter  No Holiday       8729 -0.304      52.5      3.45  1363.
 5 2017-12-05 Winter  No Holiday       8307 -4.46       36.4      1.11  1959.
 6 2017-12-06 Winter  No Holiday       6669  0.0458     70.8      0.696 1187.
 7 2017-12-07 Winter  No Holiday       8549  1.09       67.5      1.69   949.
 8 2017-12-08 Winter  No Holiday       8032 -3.82       41.8      1.85  1872.
 9 2017-12-09 Winter  No Holiday       7233 -0.846      46        1.08  1861.
10 2017-12-10 Winter  No Holiday       3453  1.19       69.7      2.00  1043.
# ℹ 343 more rows
# ℹ 4 more variables: dew_point_temp <dbl>, solar_radiation <dbl>,
#   rainfall <dbl>, snowfall <dbl>
…
Computational engine: glmnet 

# Fitting model w/ tune_grid() and grid_regular()
LASSO_grid <- LASSO_wkf %>%
  tune_grid(resamples = cv_folds_10,
            grid = grid_regular(penalty(), levels = 250),
            metrics = metric_set(rmse, mae))

We’re going to check how many fits we have fold… which outputs a tibble of 500 metrics, 250 rmse values and 250 rsq values.

# Check to see fit per fold
LASSO_grid[1, ".metrics"][[1]] 

[[1]]
# A tibble: 500 × 5
    penalty .metric .estimator .estimate .config               
      <dbl> <chr>   <chr>          <dbl> <chr>                 
 1 1   e-10 rmse    standard       4784. Preprocessor1_Model001
 2 1.10e-10 rmse    standard       4784. Preprocessor1_Model002
 3 1.20e-10 rmse    standard       4784. Preprocessor1_Model003
 4 1.32e-10 rmse    standard       4784. Preprocessor1_Model004
 5 1.45e-10 rmse    standard       4784. Preprocessor1_Model005
 6 1.59e-10 rmse    standard       4784. Preprocessor1_Model006
 7 1.74e-10 rmse    standard       4784. Preprocessor1_Model007
 8 1.91e-10 rmse    standard       4784. Preprocessor1_Model008
 9 2.10e-10 rmse    standard       4784. Preprocessor1_Model009
10 2.30e-10 rmse    standard       4784. Preprocessor1_Model010
# ℹ 490 more rows

LASSO_grid |>
  collect_metrics() |>
  filter(.metric == "rmse")

# A tibble: 250 × 7
    penalty .metric .estimator  mean     n std_err .config               
      <dbl> <chr>   <chr>      <dbl> <int>   <dbl> <chr>                 
 1 1   e-10 rmse    standard   4272.    10    168. Preprocessor1_Model001
 2 1.10e-10 rmse    standard   4272.    10    168. Preprocessor1_Model002
 3 1.20e-10 rmse    standard   4272.    10    168. Preprocessor1_Model003
 4 1.32e-10 rmse    standard   4272.    10    168. Preprocessor1_Model004
 5 1.45e-10 rmse    standard   4272.    10    168. Preprocessor1_Model005
 6 1.59e-10 rmse    standard   4272.    10    168. Preprocessor1_Model006
 7 1.74e-10 rmse    standard   4272.    10    168. Preprocessor1_Model007
 8 1.91e-10 rmse    standard   4272.    10    168. Preprocessor1_Model008
 9 2.10e-10 rmse    standard   4272.    10    168. Preprocessor1_Model009
10 2.30e-10 rmse    standard   4272.    10    168. Preprocessor1_Model010
# ℹ 240 more rows
…
Since reg_fits isn’t useful, we’ll use collect_metrics to combine the metrics across the folds. Then we’ll plot it to gain some insight.

# Collecting the metrics
reg_fits %>%
  collect_metrics()

# A tibble: 100 × 8
   cost_complexity tree_depth .metric .estimator  mean     n std_err .config    
             <dbl>      <int> <chr>   <chr>      <dbl> <int>   <dbl> <chr>      
 1    0.0000000001          1 mae     standard   4969.    10    243. Preprocess…
 2    0.0000000001          1 rmse    standard   6432.    10    350. Preprocess…
 3    0.000000001           1 mae     standard   4969.    10    243. Preprocess…
 4    0.000000001           1 rmse    standard   6432.    10    350. Preprocess…
 5    0.00000001            1 mae     standard   4969.    10    243. Preprocess…
 6    0.00000001            1 rmse    standard   6432.    10    350. Preprocess…
 7    0.0000001             1 mae     standard   4969.    10    243. Preprocess…
 8    0.0000001             1 rmse    standard   6432.    10    350. Preprocess…
 9    0.000001              1 mae     standard   4969.    10    243. Preprocess…
10    0.000001              1 rmse    standard   6432.    10    350. Preprocess…
# ℹ 90 more rows
…
Now we’ll sort by the smallest rmse value and select_best to grab the best model’s tuning parameter values. We end up with a value of 0.001 for rmse and mae. Then we’ll finalize our model.

# Arranged by mean
reg_fits %>%
  collect_metrics() %>%
  filter(.metric == "rmse") %>%
  arrange(mean)

# A tibble: 50 × 8
   cost_complexity tree_depth .metric .estimator  mean     n std_err .config    
             <dbl>      <int> <chr>   <chr>      <dbl> <int>   <dbl> <chr>      
 1    0.001                11 rmse    standard   3817.    10    285. Preprocess…
 2    0.001                15 rmse    standard   3817.    10    285. Preprocess…
 3    0.0000000001         11 rmse    standard   3837.    10    302. Preprocess…
 4    0.000000001          11 rmse    standard   3837.    10    302. Preprocess…
 5    0.00000001           11 rmse    standard   3837.    10    302. Preprocess…
 6    0.0000001            11 rmse    standard   3837.    10    302. Preprocess…
 7    0.000001             11 rmse    standard   3837.    10    302. Preprocess…
 8    0.00001              11 rmse    standard   3837.    10    302. Preprocess…
 9    0.0001               11 rmse    standard   3837.    10    302. Preprocess…
10    0.0000000001         15 rmse    standard   3837.    10    302. Preprocess…
# ℹ 40 more rows
…
